(;GM[1]FF[4]AP[Drago:4.23]CA[UTF-8]SZ[9]C[Let's switch sides. If the first player could not capture those three stones, then it is him who must be in trouble, right? Capture the big helpless white group!]AB[ba][ca][da][ac][bc][cc][dc][ec][fc][gc][gb][ga]AW[ab][bb][cb][db][eb][fb][fa]
(;B[ea]
;W[aa]C[Your opponent still captures first. Question is, can you prevent life now? Can you prevent two eyes?]
(;B[ca]
;W[da]C[You cannot.])
(;B[da]
;W[ca]C[You cannot.]))
(;B[aa]
;W[ea]C[Your opponent still captures first. Question is, can you prevent life now? Can you prevent two eyes?]
(;B[ca]
;W[ba]C[You cannot.])
(;B[ba]
;W[ca]C[You cannot.])))
