(;GM[1]FF[4]AP[Drago:4.23]CA[UTF-8]SZ[9]AW[ac][bc][cc][dc][ca][ea][fb][ec][gc]AB[ab][bb][cb][db][eb]MA[gg]C[Now try and save your group. Remember you need to have a plan for 2 eyes. 1 is not enough to survive.
Play X if you think the stones can't be saved.]
(;B[ba];W[da];B[fa];W[ea]
;B[da]LB[aa:1][ca:2]C[All is good!]TE[1])
(;B[da];W[ba]
(;B[fa]
;W[ga]C[Not too good. A is a false eye now and black is completely surrounded. The whole group will die.]MA[da][db][cb][bb][ab][eb][fa])
(;B[aa]
;W[fa]C[White did not even need that last move and Black still has only one eye. The whole group will die.]MA[aa][ab][bb][cb][db][eb][da]))
(;B[fa];W[ga])
(;B[gg]
;W[da]MA[ab][bb][cb][db][eb]C[Too bad. It was possible to save your group.]))
